{
  "EDITOR_STATE": {
    "allProjectFiles": {
      "de110818-c58e-43d4-a847-370d01c400cc": {
        "id": "de110818-c58e-43d4-a847-370d01c400cc",
        "parent": null,
        "name": "indu.js",
        "type": "JS_LAMBDA",
        "isDirectory": false,
        "children": [],
        "isRemovable": true,
        "filePath": "indu.js",
        "cursor": {
          "lineNumber": 2,
          "column": 5
        },
        "config": {
          "runtime": "nodejs10.x",
          "handler": "handler",
          "timeout": 60,
          "memory": 128,
          "layers": [],
          "name": "indu"
        },
        "triggers": [],
        "lastUpdated": 1602069992676
      }
    },
    "openFiles": [
      "de110818-c58e-43d4-a847-370d01c400cc"
    ],
    "currentFileId": "de110818-c58e-43d4-a847-370d01c400cc",
    "resources": {},
    "customTemplate": {
      "syntax": "JSON",
      "overrideDefault": false,
      "dialect": "CloudFormation",
      "definitions": null
    },
    "envVariables": [
      {
        "lambdaId": "all",
        "varKey": "SIGMA_AWS_ACC_ID",
        "varValue": null,
        "shouldPersist": false,
        "displayOnly": false,
        "editable": false
      }
    ],
    "packageJSON": {
      "dependencies": {}
    }
  },
  "PROJECT_META": {
    "sigmaVersion": "1.4.3.1",
    "projectName": "indu",
    "projectDescription": "",
    "projectVersion": "1.0.0",
    "projectRegion": "ap-northeast-1",
    "platform": "AWS",
    "language": "nodejs",
    "platformRegions": {},
    "lastSave": 1602070056145
  },
  "VCS_STATE": {
    "provider": "BitBucket",
    "repo": {
      "name": "indu",
      "url": "https://bitbucket.org/Indunil1992/indu"
    }
  }
}